{
  "projects" : [ ],
  "tasks" : [ {
    "id" : "cf71a6cc-f02f-409f-ab99-56613309a4af",
    "title" : "123",
    "description" : "321",
    "userId" : "fef59a6d-3ec7-4ac2-84e1-686b2b53a451"
  } ],
  "users" : [ {
    "id" : "4d57a876-fcef-4613-8a04-e16916386b12",
    "login" : "test",
    "passwordHash" : "9905adff1258189a11e773a71949fc2b",
    "email" : null,
    "firstName" : "Ivan",
    "secondName" : "Ivanov",
    "role" : "USER",
    "locked" : false
  }, {
    "id" : "fef59a6d-3ec7-4ac2-84e1-686b2b53a451",
    "login" : "admin",
    "passwordHash" : "88c6abb5cb4b07745aa4b1011990981d",
    "email" : null,
    "firstName" : "Petr",
    "secondName" : "Petrov",
    "role" : "ADMIN",
    "locked" : false
  } ]
}